{
    "/js/app.js": "/js/app.js?id=120cd690cf23848ee19bc3abd67baa07",
    "/css/editor-style.css": "/css/editor-style.css?id=282b7284e5d4e9aa6f67234ed5085932",
    "/css/app.css": "/css/app.css?id=566e2190e809dd07ea0bf5971f7b3ae6"
}
